﻿using System;
using System.Collections.Generic;
using System.Linq;
using System.Web;
using System.Web.Mvc;

namespace Automation.Web.Content.SupportDocProdCtrl.uploads.DownloadFiles
{
    public class DummyFile : Controller
    {
        //
        // GET: /DummyFile/

        public ActionResult Index()
        {
            return View();
        }

    }
}
