{
  "CSID": "168184",
  "KeyName": "SupportDocProdCtrl",
  "ShortName": "Support Doc Prod Ctrl",
  "FullName": "Support Doc Prod Ctrl",
  "AppOwnerSOEID": "CD25867",
  "AppOwnerName": "Carlos Dominguez",
  "AutomationID": "6",
  "AutomationName": "Support Doc Prod Ctrl"
}