{
  "CSID": "1",
  "KeyName": "IQueryMetrics",
  "ShortName": "IQueryMetrics",
  "FullName": "FRP CR - IQueryMetrics",
  "AppOwnerSOEID": "TT69564",
  "AppOwnerName": "Tam, Teng Fong",
  "AutomationID": "0",
  "AutomationName": "IQueryMetrics"
}